Predicting the default probabilities
…
#how to calculate area under curve

TPR <- extract2(ROC.df,"TPR")
FPR <- extract2(ROC.df,"FPR")

AUC <- sum((tail(FPR,-1)-head(FPR,-1))*(head(TPR,-1)+tail(TPR,-1))/2) 

AUC

## [1] 0.9494547

ROC.df %>% mutate(dist=FPR^2+(1-TPR)^2) %>% 
  arrange(dist)

## # A tibble: 10,000 x 7
##    class      p NumTP NumFP   TPR   FPR   dist
##    <fct>  <dbl> <int> <int> <dbl> <dbl>  <dbl>
##  1 No    0.0367   296  1213 0.889 0.125 0.0281
##  2 No    0.0355   297  1239 0.892 0.128 0.0281
##  3 No    0.0367   296  1214 0.889 0.126 0.0281
##  4 No    0.0355   297  1240 0.892 0.128 0.0281
##  5 No    0.0366   296  1215 0.889 0.126 0.0281
##  6 No    0.0355   297  1241 0.892 0.128 0.0282
##  7 No    0.0366   296  1216 0.889 0.126 0.0282
##  8 No    0.0354   297  1242 0.892 0.128 0.0282
##  9 No    0.0365   296  1217 0.889 0.126 0.0282
## 10 No    0.0365   296  1218 0.889 0.126 0.0282
## # ... with 9,990 more rows
